
<html>

<head>
<meta charset="UTF-8">
<title>Team Winter Gear - Catalogue</title>
<link rel="stylesheet" type="text/css" href="../style.css"/>
</head>

<body bgcolor="#F5F1DE" text="black">

<h1 align="center">Team Winter Gear</h1>

<table width="980">
	<tr bgcolor="#096BB2">
		<td colspan="3">
			<ul>
				<li><a href="../home.html">HOME</a></li>
				<li><a href="../catalogue.html">CATALOGUE</a></li>
				<li><a href="../login.html" target="_blank">LOGIN</a></li>
			</ul>
		</td>
	</tr>

<form method="POST" action="cgi-bin/Purchase.py">
<tr><td><input type="hidden" name="authenticatedUser" value="
